%YAML 1.1
%TAG !u! tag:unity3d.com,2011:
--- !u!21 &2100000
Material:
  serializedVersion: 6
  m_ObjectHideFlags: 0
  m_CorrespondingSourceObject: {fileID: 0}
  m_PrefabInstance: {fileID: 0}
  m_PrefabAsset: {fileID: 0}
  m_Name: Water4Advanced SM 3.2 TOON
  m_Shader: {fileID: 4800000, guid: db30fbac702d1984d97fcbac3f57c0d3, type: 3}
  m_ShaderKeywords: 
  m_LightmapFlags: 5
  m_EnableInstancingVariants: 0
  m_DoubleSidedGI: 0
  m_CustomRenderQueue: 3000
  stringTagMap: {}
  disabledShaderPasses: []
  m_SavedProperties:
    serializedVersion: 3
    m_TexEnvs:
    - _BumpMap:
        m_Texture: {fileID: 2800000, guid: 25b74dfb652dbcb4286211f74871b097, type: 3}
        m_Scale: {x: 1, y: 1}
        m_Offset: {x: 0, y: 0}
    - _Caustics:
        m_Texture: {fileID: 2800000, guid: eb9e91ee4c264b942a46baeec92ca0a4, type: 3}
        m_Scale: {x: 1, y: 1}
        m_Offset: {x: 0, y: 0}
    - _DecalTex:
        m_Texture: {fileID: 0}
        m_Scale: {x: 1, y: 1}
        m_Offset: {x: 0, y: 0}
    - _DepthMap:
        m_Texture: {fileID: 2800000, guid: ff6e0fbcfc24e4f95a2711ea0e73dd6a, type: 3}
        m_Scale: {x: 0.014, y: 0.014}
        m_Offset: {x: 0, y: 0}
    - _DisplacementHeightMap:
        m_Texture: {fileID: 2800000, guid: a782b26d6436b48d9882906b9f8ca31a, type: 2}
        m_Scale: {x: 1, y: 1}
        m_Offset: {x: 0, y: 0}
    - _Fresnel:
        m_Texture: {fileID: 2800000, guid: 5b5c5575fd4c74abd9f7b30862fb76a3, type: 3}
        m_Scale: {x: 1, y: 1}
        m_Offset: {x: 0, y: 0}
    - _HeightMask:
        m_Texture: {fileID: 2800000, guid: cff6f2c02e93742c095cd0c69d3d92ce, type: 3}
        m_Scale: {x: 1, y: 1}
        m_Offset: {x: 0, y: 0}
    - _MainTex:
        m_Texture: {fileID: 2800000, guid: 56343fb8b4a623a4480b64ceac6fd86f, type: 3}
        m_Scale: {x: 1, y: 1}
        m_Offset: {x: 1, y: 1}
    - _ReflectionTex:
        m_Texture: {fileID: 0}
        m_Scale: {x: 1, y: 1}
        m_Offset: {x: 0, y: 0}
    - _ReflectiveColor:
        m_Texture: {fileID: 2800000, guid: 17680dc3bf8f74b498b01cf1481e2593, type: 3}
        m_Scale: {x: 1, y: 1}
        m_Offset: {x: 0, y: 0}
    - _ReflectiveColorCube:
        m_Texture: {fileID: 8900000, guid: 0620bdf0302d84423be4aa15b82a0e11, type: 2}
        m_Scale: {x: 0.15, y: 0.1}
        m_Offset: {x: 0, y: 0}
    - _RefractionTex:
        m_Texture: {fileID: 0}
        m_Scale: {x: 1, y: 1}
        m_Offset: {x: 0, y: 0}
    - _SecondDisplacementHeightMap:
        m_Texture: {fileID: 2800000, guid: 4facc21e08e3a43ed97c930f7dae6e7b, type: 2}
        m_Scale: {x: 1, y: 1}
        m_Offset: {x: 0, y: 0}
    - _ShoreContourTex:
        m_Texture: {fileID: 0}
        m_Scale: {x: 1, y: 1}
        m_Offset: {x: 0, y: 0}
    - _ShoreTex:
        m_Texture: {fileID: 2800000, guid: e26d75c65dcd32d458bc4b8d8802c163, type: 3}
        m_Scale: {x: 1, y: 1}
        m_Offset: {x: 1, y: 1}
    - _SpecialWavesTex:
        m_Texture: {fileID: 0}
        m_Scale: {x: 1, y: 1}
        m_Offset: {x: 0, y: 0}
    - _ThirdDisplacementHeightMap:
        m_Texture: {fileID: 2800000, guid: dc30b984e8e3c4cdfb38d5fceb411602, type: 2}
        m_Scale: {x: 1, y: 1}
        m_Offset: {x: 0, y: 0}
    - _WaterHolesTex:
        m_Texture: {fileID: 0}
        m_Scale: {x: 1, y: 1}
        m_Offset: {x: 0, y: 0}
    - _WavesTex:
        m_Texture: {fileID: 0}
        m_Scale: {x: 1, y: 1}
        m_Offset: {x: 0, y: 0}
    - m_DisplacementHeightMap:
        m_Texture: {fileID: 0}
        m_Scale: {x: 1, y: 1}
        m_Offset: {x: 0, y: 0}
    - m_SecondDisplacementHeightMap:
        m_Texture: {fileID: 0}
        m_Scale: {x: 1, y: 1}
        m_Offset: {x: 0, y: 0}
    m_Floats:
    - _Ambient: 1
    - _Displacement: 0.27863377
    - _DisplacementTiling: 18.586807
    - _FadeExp: 0.91503274
    - _FoamWaveDependency: 0.10205479
    - _FresnelPower: 1.7931035
    - _FresnelScale: 1.77
    - _GerstnerIntensity: 2.82
    - _GerstnerIntensity1: -0.188599
    - _GerstnerIntensity2: 0
    - _HeightDisplacement: 3.2722514
    - _InvFade: 0.628783
    - _InvFadeDepthFade: 0.07197756
    - _InvFadeFoam: 0.1217
    - _MultiplyEffect: 28.58
    - _NormalsDisplacement: 0
    - _ReflDistort: 0.9267696
    - _RefrDistort: 1.4393286
    - _Shininess: 145
    - _ShoreFadeFactor: 0
    - _ShoreTiling: 56.862743
    - _Speed: 0.4137931
    - _TerrainScale: 500
    - _WaterDepth: 40.98077
    - _WaveCapsAmount: 0.18275861
    - _WaveFoamDistort: 0.27931035
    - _WaveScale: 0.046289656
    m_Colors:
    - WaveSpeed: {r: 1.086165, g: 4.440575, b: 12.105146, a: -3.0206447}
    - _AnimationDirection: {r: 2, g: 4, b: 2, a: -1}
    - _AnimationTiling: {r: 0.04582553, g: 0.0182, b: 0.045714468, a: 0.027129691}
    - _BaseColor: {r: 0.07169117, g: 0.18551461, b: 0.25, a: 1}
    - _BumpDirection: {r: 22, g: 22, b: 22, a: -22}
    - _BumpMap_ST: {r: 1, g: 1, b: 0, a: 0}
    - _BumpTiling: {r: 0.89, g: 1.27, b: 0.08, a: 0.06}
    - _Color: {r: 1, g: 1, b: 1, a: 1}
    - _DepthCameraPos: {r: 400, g: 866.0254, b: 500, a: 1}
    - _DepthColor: {r: 0.027511697, g: 0.14179105, b: 0.13226777, a: 0.4627451}
    - _DepthColorFade: {r: 0.8880597, g: 0.27834705, b: 0.44463244, a: 0.22352941}
    - _Displacement: {r: 6.6371665, g: 20.353983, b: -1, a: -0.681416}
    - _DisplacementXz: {r: 0.6499999, g: -2.9203715, b: 1.6599998, a: -3.9363046}
    - _DistortParams: {r: 0.67, g: 18.34, b: 2.25, a: 0.39}
    - _Extinction: {r: 4.5, g: 75, b: 300, a: 1}
    - _Foam: {r: 2.6, g: 0.68, b: 1.41, a: 0}
    - _FoamWaveParams: {r: 0, g: 0.24918434, b: 3.3395782, a: 1}
    - _Fresnel_ST: {r: 1, g: 1, b: 0, a: 0}
    - _GAmplitude: {r: 4.48, g: 4.06, b: 0, a: 0.36}
    - _GDirectionAB: {r: 0.42, g: -0.41, b: -0.2, a: 0.1}
    - _GDirectionCD: {r: 0.52, g: -0.6799, b: 0.7175, a: -0.2}
    - _GFrequency: {r: 0.28, g: 0.24, b: -1.71, a: 0.2}
    - _GSpeed: {r: -2.53, g: 2, b: 1, a: 3}
    - _GSteepness: {r: 6.96, g: 2, b: 5.92, a: 2}
    - _GerstnerIntensities: {r: 0, g: 0, b: 0, a: 0}
    - _Gerstnerfactors: {r: 0.83, g: 2.11, b: 40, a: 1}
    - _Gerstnerfactors2: {r: 0.09, g: 1, b: 1.43, a: 1}
    - _GerstnerfactorsDir: {r: -4.61, g: 1, b: 1, a: 1}
    - _GerstnerfactorsSteep: {r: 2, g: 1, b: 2, a: 1}
    - _HorizonColor: {r: 0.052907113, g: 0.24486735, b: 0.2835821, a: 1}
    - _InvFadeParemeter: {r: 0.009, g: 0.05, b: 0.043, a: 0.72}
    - _LocalWaveParams: {r: 3, g: 58.653732, b: 0.3, a: 5}
    - _LocalWavePosition: {r: 266.67075, g: 7.532995, b: -465.40604, a: 5}
    - _LocalWaveVelocity: {r: 8.054165, g: 6.5629463, b: -7.8706765, a: 0}
    - _MainTex_ST: {r: 1, g: 1, b: 0, a: 0}
    - _MultiplyTexture: {r: 0.7, g: 0.7, b: 0.5, a: 0.5}
    - _ReflectionColor: {r: 0.14057092, g: 0.3935986, b: 0.47794116, a: 0.534}
    - _ReflectionTex_ST: {r: 1, g: 1, b: 0, a: 0}
    - _ReflectiveColorCube_ST: {r: 1, g: 1, b: 0, a: 0}
    - _ReflectiveColor_ST: {r: 1, g: 1, b: 0, a: 0}
    - _RefrColor: {r: 0.5233905, g: 0.9477612, b: 0.9121496, a: 1}
    - _RefrColorDepth: {r: 0.050066825, g: 0.23134327, b: 0.17049524, a: 1}
    - _RefractionFog: {r: 0.50543475, g: 0.50543475, b: 0.50543475, a: 0.5}
    - _RefractionTex_ST: {r: 1, g: 1, b: 0, a: 0}
    - _ShoreColor: {r: 1, g: 1, b: 1, a: 1}
    - _ShorePerturbation: {r: 0, g: 0, b: 0, a: 0}
    - _ShoreTiling: {r: 1, g: 1, b: 0.1, a: 0.1}
    - _SpecularColor: {r: 1, g: 0.59593946, b: 0.53676474, a: 0.916}
    - _UnderwaterColor: {r: 0.6950323, g: 0.89552236, b: 0.7502397, a: 1}
    - _WaveOffset: {r: 1, g: 1, b: -0.01, a: -0.01}
    - _WaveScale4: {r: 0.1, g: 0.1, b: 0.01, a: 0.01}
    - _WorldLightDir: {r: -0.25047773, g: -0.1519509, b: -0.9561235, a: 0}
--- !u!1002 &2100001
EditorExtensionImpl:
  serializedVersion: 6
