%YAML 1.1
%TAG !u! tag:unity3d.com,2011:
--- !u!21 &2100000
Material:
  serializedVersion: 6
  m_ObjectHideFlags: 0
  m_CorrespondingSourceObject: {fileID: 0}
  m_PrefabInstance: {fileID: 0}
  m_PrefabAsset: {fileID: 0}
  m_Name: Moon 3
  m_Shader: {fileID: 4800000, guid: ac4f03e5226fc7e428af64ad9564e14b, type: 3}
  m_ShaderKeywords: _ALPHABLEND_ON _EMISSION
  m_LightmapFlags: 0
  m_EnableInstancingVariants: 0
  m_DoubleSidedGI: 0
  m_CustomRenderQueue: 3000
  stringTagMap:
    RenderType: Transparent
  disabledShaderPasses: []
  m_SavedProperties:
    serializedVersion: 3
    m_TexEnvs:
    - _BorderTex:
        m_Texture: {fileID: 0}
        m_Scale: {x: 1, y: 1}
        m_Offset: {x: 0, y: 0}
    - _Bump:
        m_Texture: {fileID: 2800000, guid: 080bd5d098d817944a2bfc63a7c4eda3, type: 3}
        m_Scale: {x: 1, y: 1}
        m_Offset: {x: 0, y: 1}
    - _BumpMap:
        m_Texture: {fileID: 0}
        m_Scale: {x: 1, y: 1}
        m_Offset: {x: 0, y: 0}
    - _DetailAlbedoMap:
        m_Texture: {fileID: 0}
        m_Scale: {x: 1, y: 1}
        m_Offset: {x: 0, y: 0}
    - _DetailMask:
        m_Texture: {fileID: 0}
        m_Scale: {x: 1, y: 1}
        m_Offset: {x: 0, y: 0}
    - _DetailNormalMap:
        m_Texture: {fileID: 0}
        m_Scale: {x: 1, y: 1}
        m_Offset: {x: 0, y: 0}
    - _EmissionMap:
        m_Texture: {fileID: 0}
        m_Scale: {x: 1, y: 1}
        m_Offset: {x: 0, y: 0}
    - _FinalTex:
        m_Texture: {fileID: 0}
        m_Scale: {x: 1, y: 1}
        m_Offset: {x: 0, y: 0}
    - _Illum:
        m_Texture: {fileID: 0}
        m_Scale: {x: 1, y: 1}
        m_Offset: {x: 0, y: 0}
    - _Jitter:
        m_Texture: {fileID: 0}
        m_Scale: {x: 11, y: 11}
        m_Offset: {x: 0, y: 0}
    - _MainTex:
        m_Texture: {fileID: 2800000, guid: b3828f59da9f3104b9dae3cf7269b8ed, type: 3}
        m_Scale: {x: 1, y: 1}
        m_Offset: {x: 0, y: 0}
    - _MetallicGlossMap:
        m_Texture: {fileID: 0}
        m_Scale: {x: 1, y: 1}
        m_Offset: {x: 0, y: 0}
    - _OcclusionMap:
        m_Texture: {fileID: 0}
        m_Scale: {x: 1, y: 1}
        m_Offset: {x: 0, y: 0}
    - _ParallaxMap:
        m_Texture: {fileID: 0}
        m_Scale: {x: 1, y: 1}
        m_Offset: {x: 0, y: 0}
    m_Floats:
    - '': 0
    - Light: 2.22
    - _BumpAmt: 10
    - _BumpScale: 1
    - _CloudCover: 0.37700003
    - _CloudDensity: 0.893
    - _CloudSharpness: 0.787
    - _Cutoff: 0.5
    - _DetailNormalMapScale: 1
    - _DstBlend: 10
    - _EmissionLM: 46.88
    - _EmissionScaleUI: 0.62
    - _Glossiness: 0.5
    - _Glow: 0
    - _Intensity: 1
    - _InvFade: 1
    - _Light: 0.019999998
    - _LightIntensity: 1
    - _Metallic: 0
    - _MinLight: 0
    - _Mode: 2
    - _OcclusionStrength: 1
    - _Parallax: 0.02
    - _SrcBlend: 5
    - _SunLightIntensity: 1
    - _UVSec: 0
    - _ZWrite: 0
    m_Colors:
    - _Ambient: {r: 0.54494685, g: 0.54494685, b: 0.54494685, a: 0.99999994}
    - _CloudSpeed: {r: 0, g: 0, b: 0, a: 0}
    - _Color: {r: 0.54494685, g: 0.54494685, b: 0.54494685, a: 0.8999999}
    - _Control: {r: 1, g: 1, b: 1, a: 1}
    - _EmissionColor: {r: 0.39205882, g: 0.39205882, b: 0.39205882, a: 0.62}
    - _EmissionColorUI: {r: 0.63235295, g: 0.63235295, b: 0.63235295, a: 1}
    - _SunColor: {r: 0, g: 0, b: 0, a: 0}
    - _SunDir: {r: -19100, g: 500, b: -22400, a: 0}
    - _TintColor: {r: 1, g: 1, b: 1, a: 1}
