%YAML 1.1
%TAG !u! tag:unity3d.com,2011:
--- !u!21 &2100000
Material:
  serializedVersion: 6
  m_ObjectHideFlags: 0
  m_CorrespondingSourceObject: {fileID: 0}
  m_PrefabInstance: {fileID: 0}
  m_PrefabAsset: {fileID: 0}
  m_Name: READABLE SM VOLCANIC
  m_Shader: {fileID: 34, guid: 0000000000000000f000000000000000, type: 0}
  m_ShaderKeywords: 
  m_LightmapFlags: 4
  m_EnableInstancingVariants: 0
  m_DoubleSidedGI: 0
  m_CustomRenderQueue: -1
  stringTagMap: {}
  disabledShaderPasses: []
  m_SavedProperties:
    serializedVersion: 3
    m_TexEnvs:
    - _AlphaMap:
        m_Texture: {fileID: 0}
        m_Scale: {x: 1, y: 1}
        m_Offset: {x: 0, y: 0}
    - _MainTex:
        m_Texture: {fileID: 2800000, guid: ece3e205032c10e4dbae5ecc8577d9b2, type: 3}
        m_Scale: {x: 1, y: 1}
        m_Offset: {x: 0, y: 0}
    - _Normals:
        m_Texture: {fileID: 0}
        m_Scale: {x: 1, y: 1}
        m_Offset: {x: 0, y: 0}
    - _ReflectTex:
        m_Texture: {fileID: 0}
        m_Scale: {x: 1, y: 1}
        m_Offset: {x: 0, y: 0}
    - _RefractTex:
        m_Texture: {fileID: 0}
        m_Scale: {x: 1, y: 1}
        m_Offset: {x: 0, y: 0}
    - _WaveMap:
        m_Texture: {fileID: 0}
        m_Scale: {x: 1, y: 1}
        m_Offset: {x: 0, y: 0}
    m_Floats:
    - PixelSnap: 0
    - _Alpha: 0.25
    - _Cutoff: 0.3
    - _Influence: 15
    - _InvFade: 0.83982146
    - _Parallax: 0.02
    - _Power: 0.5
    - _ShadowStrength: 1
    - _Shininess: 0.10000002
    - _SquashAmount: 1
    - _TranslucencyViewDependency: 0.7
    - _WaveHeight: 0.08
    m_Colors:
    - _Color: {r: 0.25735295, g: 0.25735295, b: 0.25735295, a: 0.5254902}
    - _EmisColor: {r: 0.9558824, g: 0.451572, b: 0.451572, a: 0.7019608}
    - _Emission: {r: 0.102941155, g: 0.08440966, b: 0.07773832, a: 0}
    - _FresnelColor: {r: 0, g: 0, b: 0, a: 1}
    - _MainCol: {r: 1, g: 1, b: 1, a: 0.5}
    - _Scale: {r: 1, g: 1, b: 1, a: 1}
    - _SpecColor: {r: 0.83823526, g: 0.37278512, b: 0.20522305, a: 0}
    - _TintColor: {r: 0.9411765, g: 0.9411765, b: 0.9411765, a: 0.7372549}
    - _TranslucencyColor: {r: 0.73, g: 0.85, b: 0.41, a: 1}
--- !u!1002 &2100001
EditorExtensionImpl:
  serializedVersion: 6
