%YAML 1.1
%TAG !u! tag:unity3d.com,2011:
--- !u!21 &2100000
Material:
  serializedVersion: 6
  m_ObjectHideFlags: 0
  m_CorrespondingSourceObject: {fileID: 0}
  m_PrefabInstance: {fileID: 0}
  m_PrefabAsset: {fileID: 0}
  m_Name: Skybox-Procedural_U5
  m_Shader: {fileID: 4800000, guid: 4520969e4c0727a44838f0818c74e551, type: 3}
  m_ShaderKeywords: 
  m_LightmapFlags: 4
  m_EnableInstancingVariants: 0
  m_DoubleSidedGI: 0
  m_CustomRenderQueue: -1
  stringTagMap: {}
  disabledShaderPasses: []
  m_SavedProperties:
    serializedVersion: 3
    m_TexEnvs:
    - _BumpTex:
        m_Texture: {fileID: 0}
        m_Scale: {x: 1, y: 1}
        m_Offset: {x: 0, y: 0}
    - _ColorRamp:
        m_Texture: {fileID: 0}
        m_Scale: {x: 1, y: 1}
        m_Offset: {x: 0, y: 0}
    - _MainTex:
        m_Texture: {fileID: 0}
        m_Scale: {x: 1, y: 1}
        m_Offset: {x: 0, y: 0}
    - _OverlayTex:
        m_Texture: {fileID: 0}
        m_Scale: {x: 1, y: 1}
        m_Offset: {x: 0, y: 0}
    m_Floats:
    - _Coloration: 0.28
    - _SkyExponent: 1.72
    - _SunSize: 10
    m_Colors:
    - _Color: {r: 1, g: 1, b: 1, a: 1}
    - _GroundColor: {r: 94, g: 65, b: 53, a: 255}
    - _SkyEquatorColor: {r: 89, g: 126, b: 124, a: 255}
    - _SkyMidColor: {r: 125, g: 128, b: 219, a: 255}
    - _SkyTopColor: {r: 100, g: 5, b: 129, a: 255}
    - _SunTint: {r: 255, g: 148, b: 27, a: 255}
