%YAML 1.1
%TAG !u! tag:unity3d.com,2011:
--- !u!21 &2100000
Material:
  serializedVersion: 6
  m_ObjectHideFlags: 0
  m_CorrespondingSourceObject: {fileID: 0}
  m_PrefabInstance: {fileID: 0}
  m_PrefabAsset: {fileID: 0}
  m_Name: waterfall 1
  m_Shader: {fileID: 4800000, guid: ade68a63ebba3dd49a336c9f71ecf38f, type: 3}
  m_ShaderKeywords: 
  m_LightmapFlags: 5
  m_EnableInstancingVariants: 0
  m_DoubleSidedGI: 0
  m_CustomRenderQueue: 3000
  stringTagMap: {}
  disabledShaderPasses: []
  m_SavedProperties:
    serializedVersion: 3
    m_TexEnvs:
    - _BumpMap:
        m_Texture: {fileID: 2800000, guid: 8c89a36f6988835449eb5e7d63b80e55, type: 3}
        m_Scale: {x: 2, y: 2}
        m_Offset: {x: 0, y: 0}
    - _Cube:
        m_Texture: {fileID: 8900000, guid: 8bf333b73a1e22b46b342c6570d08667, type: 3}
        m_Scale: {x: 1, y: 1}
        m_Offset: {x: 0, y: 0}
    - _CubeTex:
        m_Texture: {fileID: 8900000, guid: 2c60b9d3c9945064d98e8e54bc87fef0, type: 3}
        m_Scale: {x: 1, y: 1}
        m_Offset: {x: 0, y: 0}
    - _FoamTex:
        m_Texture: {fileID: 2800000, guid: 22f0068449b1c304787e6e555e67f4ee, type: 3}
        m_Scale: {x: 2, y: 5}
        m_Offset: {x: 0, y: 0}
    - _HeightTex:
        m_Texture: {fileID: 2800000, guid: b9a9d6ef6e74d5c438a45fb83dc628df, type: 3}
        m_Scale: {x: 2, y: 2}
        m_Offset: {x: 0, y: 0}
    - _MainTex:
        m_Texture: {fileID: 2800000, guid: b6e0028fbd277494982c94483c26a27b, type: 3}
        m_Scale: {x: 1, y: 2}
        m_Offset: {x: 0, y: 0}
    m_Floats:
    - _Ambient: 1
    - _BumpReflectionStr: 0.735849
    - _ChromaticDispersion: 0.6792453
    - _ColorTextureOverlay: 0.298
    - _Displacement: 0.003
    - _DisplacementTiling: 1.75
    - _FresnelPower: 2.41
    - _InvFade: 1.25
    - _InvFadeDisplacement: 0.5169811
    - _InvFadeFoam: 1.66
    - _ReflToRefrExponent: 2
    - _Reflectivity: 1
    - _Refraction: 75.471695
    - _Refractivity: 100
    - _Shininess: 60
    - _ShoreFactor: 0.8226415
    - _ShoreFadeFactor: 0.8594338
    - _Speed: 0.33962265
    m_Colors:
    - _Color: {r: 0.8134328, g: 0.8982361, b: 1, a: 1}
    - _Emission: {r: 0, g: 0, b: 0, a: 0}
    - _ReflectColor: {r: 1, g: 1, b: 1, a: 1}
    - _SpecColor: {r: 0.3137255, g: 0.30588236, b: 0.29411766, a: 1}
    - _TintColor: {r: 1, g: 0.9793341, b: 0.9328358, a: 1}
    - _WorldLightDir: {r: 0.56322485, g: 0.5965213, b: 0.57178694, a: 0}
--- !u!1002 &2100001
EditorExtensionImpl:
  serializedVersion: 6
