%YAML 1.1
%TAG !u! tag:unity3d.com,2011:
--- !u!21 &2100000
Material:
  serializedVersion: 6
  m_ObjectHideFlags: 0
  m_CorrespondingSourceObject: {fileID: 0}
  m_PrefabInstance: {fileID: 0}
  m_PrefabAsset: {fileID: 0}
  m_Name: SM_Snow 1
  m_Shader: {fileID: 4800000, guid: e4b3b8f144cc5ad42ac1272a44893688, type: 3}
  m_ShaderKeywords: 
  m_LightmapFlags: 5
  m_EnableInstancingVariants: 0
  m_DoubleSidedGI: 0
  m_CustomRenderQueue: -1
  stringTagMap: {}
  disabledShaderPasses: []
  m_SavedProperties:
    serializedVersion: 3
    m_TexEnvs:
    - _Bump:
        m_Texture: {fileID: 2800000, guid: 05e024a245b8dd74ea565eac59643313, type: 3}
        m_Scale: {x: 1, y: 1}
        m_Offset: {x: 0, y: 0}
    - _BumpMap:
        m_Texture: {fileID: 0}
        m_Scale: {x: 1, y: 1}
        m_Offset: {x: 0, y: 0}
    - _DetailAlbedoMap:
        m_Texture: {fileID: 0}
        m_Scale: {x: 1, y: 1}
        m_Offset: {x: 0, y: 0}
    - _DetailMask:
        m_Texture: {fileID: 0}
        m_Scale: {x: 1, y: 1}
        m_Offset: {x: 0, y: 0}
    - _DetailNormalMap:
        m_Texture: {fileID: 0}
        m_Scale: {x: 1, y: 1}
        m_Offset: {x: 0, y: 0}
    - _EmissionMap:
        m_Texture: {fileID: 0}
        m_Scale: {x: 1, y: 1}
        m_Offset: {x: 0, y: 0}
    - _LayerBump:
        m_Texture: {fileID: 2800000, guid: 3c0b12105a22b9848831eca0529161c0, type: 3}
        m_Scale: {x: 1, y: 1}
        m_Offset: {x: 0, y: 0}
    - _LayerTex:
        m_Texture: {fileID: 2800000, guid: 557fa375b09068c4d9f4d473da0983c5, type: 3}
        m_Scale: {x: 1, y: 1}
        m_Offset: {x: 0, y: 0}
    - _MainBump:
        m_Texture: {fileID: 2800000, guid: 9c179526097eec74ca7c95010088b3d6, type: 3}
        m_Scale: {x: 1, y: 1}
        m_Offset: {x: 0, y: 0}
    - _MainTex:
        m_Texture: {fileID: 2800000, guid: 653549924580c194eb8c943febd90d67, type: 3}
        m_Scale: {x: 1, y: 1}
        m_Offset: {x: 0, y: 0}
    - _MainTex2:
        m_Texture: {fileID: 2800000, guid: 5aa6cdbbd541c41478394fe247ac62a0, type: 3}
        m_Scale: {x: 1, y: 1}
        m_Offset: {x: 0, y: 0}
    - _Mask:
        m_Texture: {fileID: 2800000, guid: 8aa02c8338fe95f418de5c9a5d882a52, type: 3}
        m_Scale: {x: 1, y: 1}
        m_Offset: {x: 0, y: 0}
    - _MetallicGlossMap:
        m_Texture: {fileID: 0}
        m_Scale: {x: 1, y: 1}
        m_Offset: {x: 0, y: 0}
    - _NormalMap2:
        m_Texture: {fileID: 2800000, guid: 52caa31beb73c0243a04ee03bb0e052b, type: 3}
        m_Scale: {x: 1, y: 1}
        m_Offset: {x: 0, y: 0}
    - _OcclusionMap:
        m_Texture: {fileID: 0}
        m_Scale: {x: 1, y: 1}
        m_Offset: {x: 0, y: 0}
    - _ParallaxMap:
        m_Texture: {fileID: 0}
        m_Scale: {x: 1, y: 1}
        m_Offset: {x: 0, y: 0}
    - _SnowBump:
        m_Texture: {fileID: 2800000, guid: 05e024a245b8dd74ea565eac59643313, type: 3}
        m_Scale: {x: 1, y: 1}
        m_Offset: {x: 0, y: 0}
    - _SnowTexture:
        m_Texture: {fileID: 2800000, guid: 4bca51e522874d14d9cb736580f24ecf, type: 3}
        m_Scale: {x: 1, y: 1}
        m_Offset: {x: 0, y: 0}
    - _SpecGlossMap:
        m_Texture: {fileID: 2800000, guid: 334e9cfa1b4af36418c471e785d46bca, type: 3}
        m_Scale: {x: 1, y: 1}
        m_Offset: {x: 0, y: 0}
    - _SpecGlossMap2:
        m_Texture: {fileID: 2800000, guid: 6d3a84f108f95cd4390988665abcc59f, type: 3}
        m_Scale: {x: 1, y: 1}
        m_Offset: {x: 0, y: 0}
    - _Water:
        m_Texture: {fileID: 2800000, guid: 22b88a8c72b7756429cef914fbb7f35b, type: 3}
        m_Scale: {x: 1, y: 1}
        m_Offset: {x: 0, y: 0}
    m_Floats:
    - _BumpPower: 1
    - _BumpScale: 1
    - _Cutoff: 0.5
    - _Depth: 0.0134
    - _DetailNormalMapScale: 1
    - _DstBlend: 0
    - _EmissionScaleUI: 0
    - _Glossiness: 0.5
    - _LayerDepth: 0.005
    - _LayerStrength: 0.85
    - _LightIntensity: 1.9
    - _Metallic: 0
    - _Mode: 0
    - _OcclusionStrength: 1
    - _Parallax: 0.02
    - _Shininess: 0.051
    - _SnowBlend: 0.28
    - _SnowBumpDepth: 4.5
    - _SnowCoverage: 0.09
    - _SnowStrength: 0.57
    - _SrcBlend: 1
    - _UVSec: 0
    - _Wetness: 1.4
    - _ZWrite: 1
    - water_level: 1
    - water_spec: 1.2
    - water_tiling: 2
    m_Colors:
    - _Color: {r: 1, g: 1, b: 1, a: 1}
    - _Direction: {r: -0.65, g: 0.96, b: 0, a: 1}
    - _EmissionColor: {r: 0, g: 0, b: 0, a: 1}
    - _EmissionColorUI: {r: 1, g: 1, b: 1, a: 1}
    - _LayerDirection: {r: 0, g: 1, b: 0, a: 1}
    - _Power: {r: 0, g: 1, b: 1, a: 0}
    - worldPos: {r: 1, g: 1, b: 1, a: 1}
