%YAML 1.1
%TAG !u! tag:unity3d.com,2011:
--- !u!21 &2100000
Material:
  serializedVersion: 6
  m_ObjectHideFlags: 0
  m_CorrespondingSourceObject: {fileID: 0}
  m_PrefabInstance: {fileID: 0}
  m_PrefabAsset: {fileID: 0}
  m_Name: SETB2_HEAVY STORM CLOUDS
  m_Shader: {fileID: 4800000, guid: 20be94bb935702041b39b5f32e6d665f, type: 3}
  m_ShaderKeywords: _ALPHABLEND_ON
  m_LightmapFlags: 5
  m_EnableInstancingVariants: 0
  m_DoubleSidedGI: 0
  m_CustomRenderQueue: 3000
  stringTagMap: {}
  disabledShaderPasses: []
  m_SavedProperties:
    serializedVersion: 3
    m_TexEnvs:
    - _BorderTex:
        m_Texture: {fileID: 2800000, guid: 043fb5fd649333d469e2d9ed50bdac48, type: 3}
        m_Scale: {x: 1, y: 1}
        m_Offset: {x: 0, y: 0}
    - _Bump:
        m_Texture: {fileID: 0}
        m_Scale: {x: 1, y: 1}
        m_Offset: {x: 0, y: 0}
    - _BumpMap:
        m_Texture: {fileID: 0}
        m_Scale: {x: 11, y: 11}
        m_Offset: {x: 0, y: 0}
    - _DetailAlbedoMap:
        m_Texture: {fileID: 0}
        m_Scale: {x: 1, y: 1}
        m_Offset: {x: 0, y: 0}
    - _DetailMask:
        m_Texture: {fileID: 0}
        m_Scale: {x: 1, y: 1}
        m_Offset: {x: 0, y: 0}
    - _DetailNormalMap:
        m_Texture: {fileID: 0}
        m_Scale: {x: 1, y: 1}
        m_Offset: {x: 0, y: 0}
    - _EmissionMap:
        m_Texture: {fileID: 0}
        m_Scale: {x: 1, y: 1}
        m_Offset: {x: 0, y: 0}
    - _FinalTex:
        m_Texture: {fileID: 0}
        m_Scale: {x: 1, y: 1}
        m_Offset: {x: 0, y: 0}
    - _Jitter:
        m_Texture: {fileID: 0}
        m_Scale: {x: 1, y: 1}
        m_Offset: {x: 0, y: 0}
    - _MainTex:
        m_Texture: {fileID: 2800000, guid: 5aa2745536c99824cbeaae0911f19d43, type: 3}
        m_Scale: {x: 1, y: 1}
        m_Offset: {x: 0, y: 0}
    - _MainTex2:
        m_Texture: {fileID: 2800000, guid: e0b4e2b5812e8544e9b1df859cfc295e, type: 3}
        m_Scale: {x: 1, y: 1}
        m_Offset: {x: 0, y: 0}
    - _MetallicGlossMap:
        m_Texture: {fileID: 0}
        m_Scale: {x: 1, y: 1}
        m_Offset: {x: 0, y: 0}
    - _OcclusionMap:
        m_Texture: {fileID: 0}
        m_Scale: {x: 1, y: 1}
        m_Offset: {x: 0, y: 0}
    - _ParallaxMap:
        m_Texture: {fileID: 0}
        m_Scale: {x: 1, y: 1}
        m_Offset: {x: 0, y: 0}
    - _SecondTex:
        m_Texture: {fileID: 2800000, guid: 5e0c3993d7f506b45920659e7fd6332b, type: 3}
        m_Scale: {x: 1, y: 1}
        m_Offset: {x: 0, y: 0}
    m_Floats:
    - PixelSnap: 0
    - _AO: 0
    - _Alpha: 0
    - _BaseLight: 0.3207547
    - _BumpAmt: 10
    - _BumpScale: 1
    - _CloudCover: 0.5
    - _CloudDensity: 1
    - _CloudSharpness: 0.8
    - _Cutoff: 0.9
    - _DetailNormalMapScale: 1
    - _DstBlend: 10
    - _EdgeFade: 1.2
    - _EmissionLM: 0
    - _EmissionScaleUI: 0
    - _Glossiness: 0.5
    - _Glow: 4.25
    - _HalfOverCutoff: 0
    - _Intensity: 0.73
    - _InvFade: 1.94
    - _LightIntensity: 1.58
    - _Metallic: 0
    - _MinLight: -0.65
    - _Mode: 2
    - _Occlusion: 0
    - _OcclusionStrength: 1
    - _Parallax: 0.02
    - _Shininess: 0.7
    - _SrcBlend: 5
    - _SunLightIntensity: 1.77
    - _UVSec: 0
    - _ZWrite: 0
    - _Zparam1: 8
    m_Colors:
    - _Ambient: {r: 0, g: 0, b: 0, a: 0}
    - _CloudSpeed: {r: 0.001, g: 0, b: 0, a: 0}
    - _Color: {r: 0, g: 0, b: 0, a: 0}
    - _Control: {r: 0.678, g: 0.222, b: 0.478, a: 1}
    - _EmisColor: {r: 1, g: 1, b: 1, a: 1}
    - _Emission: {r: 0, g: 0, b: 0, a: 0}
    - _EmissionColor: {r: 0, g: 0, b: 0, a: 0}
    - _EmissionColorUI: {r: 1, g: 1, b: 1, a: 1}
    - _Scale: {r: 1, g: 1, b: 1, a: 1}
    - _SpecColor: {r: 1, g: 1, b: 1, a: 0}
    - _Speed: {r: 0, g: 0, b: 0, a: 0}
    - _SunColor: {r: 0.933, g: 0.5960001, b: 0.44300002, a: 1}
    - _SunDir: {r: 0, g: 1, b: 0, a: 0}
    - _TintColor: {r: 1, g: 0.9044118, b: 0.9044118, a: 0.578}
--- !u!1002 &2100001
EditorExtensionImpl:
  serializedVersion: 6
