%YAML 1.1
%TAG !u! tag:unity3d.com,2011:
--- !u!21 &2100000
Material:
  serializedVersion: 6
  m_ObjectHideFlags: 0
  m_CorrespondingSourceObject: {fileID: 0}
  m_PrefabInstance: {fileID: 0}
  m_PrefabAsset: {fileID: 0}
  m_Name: READABLE SM v1.6 CLOUD DOME 4
  m_Shader: {fileID: 4800000, guid: 24e669c52cf68c643862ed6adaf3195c, type: 3}
  m_ShaderKeywords: 
  m_LightmapFlags: 5
  m_EnableInstancingVariants: 0
  m_DoubleSidedGI: 0
  m_CustomRenderQueue: -1
  stringTagMap: {}
  disabledShaderPasses: []
  m_SavedProperties:
    serializedVersion: 3
    m_TexEnvs:
    - _AlphaMap:
        m_Texture: {fileID: 0}
        m_Scale: {x: 1, y: 1}
        m_Offset: {x: 0, y: 0}
    - _Bump:
        m_Texture: {fileID: 0}
        m_Scale: {x: 1, y: 1}
        m_Offset: {x: 0, y: 0}
    - _Jitter:
        m_Texture: {fileID: 0}
        m_Scale: {x: 1, y: 1}
        m_Offset: {x: 0, y: 0}
    - _MainTex:
        m_Texture: {fileID: 2800000, guid: e30fccb4a9ac6754f99eb8d1cb261e28, type: 3}
        m_Scale: {x: 1, y: 1}
        m_Offset: {x: 0, y: 0}
    - _Normals:
        m_Texture: {fileID: 0}
        m_Scale: {x: 1, y: 1}
        m_Offset: {x: 0, y: 0}
    - _ReflectTex:
        m_Texture: {fileID: 0}
        m_Scale: {x: 1, y: 1}
        m_Offset: {x: 0, y: 0}
    - _RefractTex:
        m_Texture: {fileID: 0}
        m_Scale: {x: 1, y: 1}
        m_Offset: {x: 0, y: 0}
    - _WaveMap:
        m_Texture: {fileID: 0}
        m_Scale: {x: 1, y: 1}
        m_Offset: {x: 0, y: 0}
    m_Floats:
    - PixelSnap: 0
    - _Alpha: 0.25
    - _CloudCover: 1.07
    - _CloudDensity: 1
    - _CloudSharpness: 0.99
    - _Cutoff: 0.3
    - _Influence: 15
    - _InvFade: 0.83982146
    - _Parallax: 0.02
    - _Power: 0.5
    - _ShadowStrength: 1
    - _Shininess: 0.6287773
    - _SquashAmount: 1
    - _TranslucencyViewDependency: 0.7
    - _WaveHeight: 0.08
    m_Colors:
    - _Ambient: {r: 0.9632353, g: 0.8994918, b: 0.8994918, a: 0.50980395}
    - _CloudSpeed: {r: -0.06, g: -0.011034, b: 0.12, a: -1.74}
    - _Color: {r: 0.35294116, g: 0.21192653, b: 0.11159169, a: 0.684}
    - _EmisColor: {r: 0.9558824, g: 0.93280935, b: 0.93280935, a: 0.23529412}
    - _Emission: {r: 0.062939994, g: 0.055527393, b: 0.07352942, a: 0}
    - _FresnelColor: {r: 0, g: 0, b: 0, a: 1}
    - _MainCol: {r: 1, g: 1, b: 1, a: 0.5}
    - _Scale: {r: 1, g: 1, b: 1, a: 1}
    - _SpecColor: {r: 0.5147059, g: 0.5147059, b: 0.5147059, a: 0}
    - _SunDir: {r: 3.08, g: -2.5, b: 29.16, a: 0}
    - _TintColor: {r: 0.9411765, g: 0.9411765, b: 0.9411765, a: 0.7372549}
    - _TranslucencyColor: {r: 0.73, g: 0.85, b: 0.41, a: 1}
--- !u!1002 &2100001
EditorExtensionImpl:
  serializedVersion: 6
